************* Module main
E: 15, 0: Unable to import 'SimpleCV' (import-error)
W: 36,25: Redefining name 'sleeptime' from outer scope (line 24) (redefined-outer-name)
W: 61,21: Redefining name 'sleeptime' from outer scope (line 24) (redefined-outer-name)


Report
======
62 statements analysed.

Statistics by type
------------------

+---------+-------+-----------+-----------+------------+---------+
|type     |number |old number |difference |%documented |%badname |
+=========+=======+===========+===========+============+=========+
|module   |1      |NC         |NC         |100.00      |0.00     |
+---------+-------+-----------+-----------+------------+---------+
|class    |0      |NC         |NC         |0           |0        |
+---------+-------+-----------+-----------+------------+---------+
|method   |0      |NC         |NC         |0           |0        |
+---------+-------+-----------+-----------+------------+---------+
|function |4      |NC         |NC         |100.00      |0.00     |
+---------+-------+-----------+-----------+------------+---------+



External dependencies
---------------------
::

    FreeSMS 
      \-main (main)
    numpy (main)



Raw metrics
-----------

+----------+-------+------+---------+-----------+
|type      |number |%     |previous |difference |
+==========+=======+======+=========+===========+
|code      |68     |60.18 |NC       |NC         |
+----------+-------+------+---------+-----------+
|docstring |10     |8.85  |NC       |NC         |
+----------+-------+------+---------+-----------+
|comment   |18     |15.93 |NC       |NC         |
+----------+-------+------+---------+-----------+
|empty     |17     |15.04 |NC       |NC         |
+----------+-------+------+---------+-----------+



Duplication
-----------

+-------------------------+------+---------+-----------+
|                         |now   |previous |difference |
+=========================+======+=========+===========+
|nb duplicated lines      |0     |NC       |NC         |
+-------------------------+------+---------+-----------+
|percent duplicated lines |0.000 |NC       |NC         |
+-------------------------+------+---------+-----------+



Messages by category
--------------------

+-----------+-------+---------+-----------+
|type       |number |previous |difference |
+===========+=======+=========+===========+
|convention |0      |NC       |NC         |
+-----------+-------+---------+-----------+
|refactor   |0      |NC       |NC         |
+-----------+-------+---------+-----------+
|warning    |2      |NC       |NC         |
+-----------+-------+---------+-----------+
|error      |1      |NC       |NC         |
+-----------+-------+---------+-----------+



Messages
--------

+---------------------+------------+
|message id           |occurrences |
+=====================+============+
|redefined-outer-name |2           |
+---------------------+------------+
|import-error         |1           |
+---------------------+------------+



Global evaluation
-----------------
Your code has been rated at 8.87/10

